b2b87-b304f
f21f4-0edeb
16598-74b88
7951b-fb23d
910f9-fbdaf
832b8-2abb6
dc55a-78f1b
7743d-9006a
ac17f-8c2fb
8f59a-64b44
c1f4a-92d37
79790-875fb
b0b8b-b57ef
84a63-5cac3
27fe4-c69ba
68c4d-befcb